module github.com/ignite/cli

go 1.18

require (
	cosmossdk.io/math v1.0.0-beta.3
	github.com/99designs/keyring v1.2.1
	github.com/AlecAivazis/survey/v2 v2.1.1
	github.com/blang/semver v3.5.1+incompatible
	github.com/briandowns/spinner v1.11.1
	github.com/buger/jsonparser v1.1.1
	github.com/cenkalti/backoff v2.2.1+incompatible
	github.com/charmbracelet/glow v1.4.0
	github.com/cosmos/cosmos-sdk v0.46.7
	github.com/cosmos/go-bip39 v1.0.0
	github.com/cosmos/ibc-go/v5 v5.0.0-rc0
	github.com/docker/docker v20.10.19+incompatible
	github.com/emicklei/proto v1.9.0
	github.com/fatih/color v1.13.0
	github.com/ghodss/yaml v1.0.0
	github.com/go-git/go-git/v5 v5.1.0
	github.com/gobuffalo/genny v0.6.0
	github.com/gobuffalo/logger v1.0.6
	github.com/gobuffalo/packd v1.0.1
	github.com/gobuffalo/plush v3.8.3+incompatible
	github.com/gobuffalo/plushgen v0.1.2
	github.com/goccy/go-yaml v1.9.4
	github.com/gogo/protobuf v1.3.3
	github.com/google/go-github/v37 v37.0.0
	github.com/gookit/color v1.5.0
	github.com/gorilla/mux v1.8.0
	github.com/gorilla/rpc v1.2.0
	github.com/iancoleman/strcase v0.2.0
	github.com/imdario/mergo v0.3.13
	github.com/jpillora/chisel v1.7.7
	github.com/manifoldco/promptui v0.9.0
	github.com/mattn/go-zglob v0.0.3
	github.com/otiai10/copy v1.6.0
	github.com/pelletier/go-toml v1.9.5
	github.com/pkg/errors v0.9.1
	github.com/radovskyb/watcher v1.0.7
	github.com/rdegges/go-ipify v0.0.0-20150526035502-2d94a6a86c40
	github.com/rs/cors v1.8.2
	github.com/spf13/cast v1.5.0
	github.com/spf13/cobra v1.6.0
	github.com/spf13/pflag v1.0.5
	github.com/stretchr/testify v1.8.1
	github.com/takuoki/gocase v1.0.0
	github.com/tendermint/flutter/v2 v2.0.4
	github.com/tendermint/spn v0.2.1-0.20220826123316-985b629a92dd
	github.com/tendermint/tendermint v0.34.24
	github.com/tendermint/tm-db v0.6.7
	github.com/tendermint/vue v0.3.5
	github.com/vektra/mockery/v2 v2.14.0
	go.etcd.io/bbolt v1.3.6
	golang.org/x/mod v0.6.0
	golang.org/x/sync v0.0.0-20220929204114-8fcdb60fdcc0
	golang.org/x/term v0.2.0
	golang.org/x/text v0.4.0
	golang.org/x/tools v0.2.0
	google.golang.org/grpc v1.50.1
	google.golang.org/protobuf v1.28.2-0.20220831092852-f930b1dc76e8
	gopkg.in/yaml.v2 v2.4.0
	mvdan.cc/gofumpt v0.4.0
)

require (
	cosmossdk.io/errors v1.0.0-beta.7 // indirect
	filippo.io/edwards25519 v1.0.0-rc.1 // indirect
	github.com/99designs/go-keychain v0.0.0-20191008050251-8e49817e8af4 // indirect
	github.com/ChainSafe/go-schnorrkel v0.0.0-20200405005733-88cbf1b4c40d // indirect
	github.com/Microsoft/go-winio v0.6.0 // indirect
	github.com/Microsoft/hcsshim v0.9.4 // indirect
	github.com/Workiva/go-datastructures v1.0.53 // indirect
	github.com/alecthomas/chroma v0.8.2 // indirect
	github.com/andrew-d/go-termutil v0.0.0-20150726205930-009166a695a2 // indirect
	github.com/armon/go-metrics v0.4.0 // indirect
	github.com/armon/go-socks5 v0.0.0-20160902184237-e75332964ef5 // indirect
	github.com/atotto/clipboard v0.1.2 // indirect
	github.com/aymerick/douceur v0.2.0 // indirect
	github.com/beorn7/perks v1.0.1 // indirect
	github.com/bgentry/speakeasy v0.1.0 // indirect
	github.com/btcsuite/btcd v0.22.1 // indirect
	github.com/calmh/randomart v1.1.0 // indirect
	github.com/cenkalti/backoff/v4 v4.1.3 // indirect
	github.com/cespare/xxhash v1.1.0 // indirect
	github.com/cespare/xxhash/v2 v2.1.2 // indirect
	github.com/charmbracelet/bubbles v0.7.6 // indirect
	github.com/charmbracelet/bubbletea v0.13.1 // indirect
	github.com/charmbracelet/charm v0.8.6 // indirect
	github.com/charmbracelet/glamour v0.2.1-0.20210311152407-2b8307dcb400 // indirect
	github.com/chzyer/readline v0.0.0-20180603132655-2972be24d48e // indirect
	github.com/coinbase/rosetta-sdk-go v0.7.9 // indirect
	github.com/confio/ics23/go v0.9.0 // indirect
	github.com/containerd/cgroups v1.0.3 // indirect
	github.com/containerd/console v1.0.3 // indirect
	github.com/containerd/containerd v1.6.8 // indirect
	github.com/cosmos/btcutil v1.0.5 // indirect
	github.com/cosmos/cosmos-proto v1.0.0-alpha7 // indirect
	github.com/cosmos/gorocksdb v1.2.0 // indirect
	github.com/cosmos/iavl v0.19.4 // indirect
	github.com/cosmos/ledger-cosmos-go v0.12.1 // indirect
	github.com/cpuguy83/go-md2man/v2 v2.0.2 // indirect
	github.com/creachadair/taskgroup v0.3.2 // indirect
	github.com/danieljoos/wincred v1.1.2 // indirect
	github.com/danwakefield/fnmatch v0.0.0-20160403171240-cbb64ac3d964 // indirect
	github.com/davecgh/go-spew v1.1.1 // indirect
	github.com/desertbit/timer v0.0.0-20180107155436-c41aec40b27f // indirect
	github.com/dgraph-io/badger/v2 v2.2007.4 // indirect
	github.com/dgraph-io/ristretto v0.1.0 // indirect
	github.com/dgrijalva/jwt-go v3.2.0+incompatible // indirect
	github.com/dgryski/go-farm v0.0.0-20200201041132-a6ae2369ad13 // indirect
	github.com/dlclark/regexp2 v1.4.1-0.20201116162257-a2a8dda75c91 // indirect
	github.com/docker/go-units v0.5.0 // indirect
	github.com/dustin/go-humanize v1.0.1-0.20200219035652-afde56e7acac // indirect
	github.com/dvsekhvalnov/jose2go v1.5.0 // indirect
	github.com/emirpasic/gods v1.12.0 // indirect
	github.com/fatih/structs v1.1.0 // indirect
	github.com/felixge/httpsnoop v1.0.1 // indirect
	github.com/fsnotify/fsnotify v1.5.4 // indirect
	github.com/go-git/gcfg v1.5.0 // indirect
	github.com/go-git/go-billy/v5 v5.0.0 // indirect
	github.com/go-kit/kit v0.12.0 // indirect
	github.com/go-kit/log v0.2.1 // indirect
	github.com/go-logfmt/logfmt v0.5.1 // indirect
	github.com/gobuffalo/envy v1.8.1 // indirect
	github.com/gobuffalo/flect v0.2.5 // indirect
	github.com/gobuffalo/github_flavored_markdown v1.1.1 // indirect
	github.com/gobuffalo/helpers v0.6.5 // indirect
	github.com/gobuffalo/tags/v3 v3.1.3 // indirect
	github.com/gobuffalo/validate/v3 v3.3.2 // indirect
	github.com/godbus/dbus v0.0.0-20190726142602-4481cbc300e2 // indirect
	github.com/gofrs/uuid v4.3.0+incompatible // indirect
	github.com/gogo/gateway v1.1.0 // indirect
	github.com/golang/glog v1.0.0 // indirect
	github.com/golang/groupcache v0.0.0-20210331224755-41bb18bfe9da // indirect
	github.com/golang/protobuf v1.5.2 // indirect
	github.com/golang/snappy v0.0.4 // indirect
	github.com/google/btree v1.0.1 // indirect
	github.com/google/go-cmp v0.5.9 // indirect
	github.com/google/go-querystring v1.0.0 // indirect
	github.com/google/orderedcode v0.0.1 // indirect
	github.com/google/uuid v1.3.0 // indirect
	github.com/gorilla/css v1.0.0 // indirect
	github.com/gorilla/handlers v1.5.1 // indirect
	github.com/gorilla/websocket v1.5.0 // indirect
	github.com/grpc-ecosystem/go-grpc-middleware v1.3.0 // indirect
	github.com/grpc-ecosystem/grpc-gateway v1.16.0 // indirect
	github.com/gsterjov/go-libsecret v0.0.0-20161001094733-a6f4afe4910c // indirect
	github.com/gtank/merlin v0.1.1 // indirect
	github.com/gtank/ristretto255 v0.1.2 // indirect
	github.com/hashicorp/go-immutable-radix v1.3.1 // indirect
	github.com/hashicorp/golang-lru v0.5.5-0.20210104140557-80c98217689d // indirect
	github.com/hashicorp/hcl v1.0.0 // indirect
	github.com/hdevalence/ed25519consensus v0.0.0-20220222234857-c00d1f31bab3 // indirect
	github.com/improbable-eng/grpc-web v0.15.0 // indirect
	github.com/inconshreveable/mousetrap v1.0.1 // indirect
	github.com/jbenet/go-context v0.0.0-20150711004518-d14ea06fba99 // indirect
	github.com/jmhodges/levigo v1.0.0 // indirect
	github.com/joho/godotenv v1.3.0 // indirect
	github.com/jpillora/ansi v1.0.2 // indirect
	github.com/jpillora/backoff v1.0.0 // indirect
	github.com/jpillora/requestlog v1.0.0 // indirect
	github.com/jpillora/sizestr v1.0.0 // indirect
	github.com/kballard/go-shellquote v0.0.0-20180428030007-95032a82bc51 // indirect
	github.com/kevinburke/ssh_config v0.0.0-20190725054713-01f96b0aa0cd // indirect
	github.com/klauspost/compress v1.15.11 // indirect
	github.com/lib/pq v1.10.6 // indirect
	github.com/libp2p/go-buffer-pool v0.1.0 // indirect
	github.com/lucasb-eyer/go-colorful v1.2.0 // indirect
	github.com/magiconair/properties v1.8.6 // indirect
	github.com/mattn/go-colorable v0.1.13 // indirect
	github.com/mattn/go-isatty v0.0.16 // indirect
	github.com/mattn/go-runewidth v0.0.10 // indirect
	github.com/matttproud/golang_protobuf_extensions v1.0.2-0.20181231171920-c182affec369 // indirect
	github.com/meowgorithm/babyenv v1.3.1 // indirect
	github.com/mgutz/ansi v0.0.0-20170206155736-9520e82c474b // indirect
	github.com/microcosm-cc/bluemonday v1.0.16 // indirect
	github.com/mikesmitty/edkey v0.0.0-20170222072505-3356ea4e686a // indirect
	github.com/mimoo/StrobeGo v0.0.0-20210601165009-122bf33a46e0 // indirect
	github.com/minio/highwayhash v1.0.2 // indirect
	github.com/mitchellh/go-homedir v1.1.0 // indirect
	github.com/mitchellh/mapstructure v1.5.0 // indirect
	github.com/moby/sys/mount v0.3.1 // indirect
	github.com/moby/sys/mountinfo v0.6.0 // indirect
	github.com/mtibben/percent v0.2.1 // indirect
	github.com/muesli/gitcha v0.2.0 // indirect
	github.com/muesli/go-app-paths v0.2.1 // indirect
	github.com/muesli/reflow v0.2.1-0.20210115123740-9e1d0d53df68 // indirect
	github.com/muesli/sasquatch v0.0.0-20200811221207-66979d92330a // indirect
	github.com/muesli/termenv v0.8.0 // indirect
	github.com/olekukonko/tablewriter v0.0.5 // indirect
	github.com/opencontainers/go-digest v1.0.0 // indirect
	github.com/opencontainers/image-spec v1.1.0-rc2 // indirect
	github.com/opencontainers/runc v1.1.3 // indirect
	github.com/pelletier/go-toml/v2 v2.0.5 // indirect
	github.com/petermattis/goid v0.0.0-20180202154549-b0b1615b78e5 // indirect
	github.com/pmezard/go-difflib v1.0.0 // indirect
	github.com/prometheus/client_golang v1.12.2 // indirect
	github.com/prometheus/client_model v0.2.0 // indirect
	github.com/prometheus/common v0.34.0 // indirect
	github.com/prometheus/procfs v0.8.0 // indirect
	github.com/rakyll/statik v0.1.7 // indirect
	github.com/rcrowley/go-metrics v0.0.0-20201227073835-cf1acfcdf475 // indirect
	github.com/regen-network/cosmos-proto v0.3.1 // indirect
	github.com/rivo/uniseg v0.2.0 // indirect
	github.com/rogpeppe/go-internal v1.9.0 // indirect
	github.com/rs/zerolog v1.27.0 // indirect
	github.com/russross/blackfriday/v2 v2.1.0 // indirect
	github.com/sabhiram/go-gitignore v0.0.0-20180611051255-d3107576ba94 // indirect
	github.com/sahilm/fuzzy v0.1.0 // indirect
	github.com/sasha-s/go-deadlock v0.3.1 // indirect
	github.com/segmentio/ksuid v1.0.3 // indirect
	github.com/sergi/go-diff v1.2.0 // indirect
	github.com/sirupsen/logrus v1.9.0 // indirect
	github.com/sourcegraph/annotate v0.0.0-20160123013949-f4cad6c6324d // indirect
	github.com/sourcegraph/syntaxhighlight v0.0.0-20170531221838-bd320f5d308e // indirect
	github.com/spf13/afero v1.8.2 // indirect
	github.com/spf13/jwalterweatherman v1.1.0 // indirect
	github.com/spf13/viper v1.13.0 // indirect
	github.com/stretchr/objx v0.5.0 // indirect
	github.com/subosito/gotenv v1.4.1 // indirect
	github.com/syndtr/goleveldb v1.0.1-0.20210819022825-2ae1ddf74ef7 // indirect
	github.com/tendermint/btcd v0.1.1 // indirect
	github.com/tendermint/crypto v0.0.0-20191022145703-50d29ede1e15 // indirect
	github.com/tendermint/go-amino v0.16.0 // indirect
	github.com/tomasen/realip v0.0.0-20180522021738-f0c99a92ddce // indirect
	github.com/xanzy/ssh-agent v0.2.1 // indirect
	github.com/xo/terminfo v0.0.0-20210125001918-ca9a967f8778 // indirect
	github.com/yuin/goldmark v1.4.13 // indirect
	github.com/yuin/goldmark-emoji v1.0.1 // indirect
	github.com/zondax/hid v0.9.1 // indirect
	github.com/zondax/ledger-go v0.14.0 // indirect
	go.opencensus.io v0.23.0 // indirect
	golang.org/x/crypto v0.2.0 // indirect
	golang.org/x/exp v0.0.0-20220722155223-a9213eeb770e // indirect
	golang.org/x/net v0.2.0 // indirect
	golang.org/x/sys v0.2.0 // indirect
	golang.org/x/xerrors v0.0.0-20220609144429-65e65417b02f // indirect
	google.golang.org/genproto v0.0.0-20221014213838-99cd37c6964a // indirect
	gopkg.in/ini.v1 v1.67.0 // indirect
	gopkg.in/warnings.v0 v0.1.2 // indirect
	gopkg.in/yaml.v3 v3.0.1 // indirect
	nhooyr.io/websocket v1.8.6 // indirect
	sigs.k8s.io/yaml v1.3.0 // indirect
)

replace github.com/gogo/protobuf => github.com/regen-network/protobuf v1.3.3-alpha.regen.1

replace github.com/cosmos/cosmos-sdk v0.46.7 => gitlab.com/dysonproject/cosmos-sdk v0.46.7-fixnft
